%!PS-Adobe-2.0 EPSF-2.0
%%BoundingBox:  0 0 567 544
%%Title: TestAnomalousPoints/bumpHunterStatPlot_our3Par_496.eps: 
%%Creator: ROOT Version 6.16/00
%%CreationDate: Tue Jun 16 17:26:46 2020
%%DocumentNeededResources: ProcSet (FontSetInit)
%%EndComments
%%BeginProlog
80 dict begin
/s {stroke} def /l {lineto} def /m {moveto} def /t {translate} def
/r {rotate} def /rl {roll}  def /R {repeat} def
/d {rlineto} def /rm {rmoveto} def /gr {grestore} def /f {eofill} def
/c {setrgbcolor} def /black {0 setgray} def /sd {setdash} def
/cl {closepath} def /sf {scalefont setfont} def /lw {setlinewidth} def
/box {m dup 0 exch d exch 0 d 0 exch neg d cl} def
/NC{systemdict begin initclip end}def/C{NC box clip newpath}def
/bl {box s} def /bf {gsave box gsave f grestore 1 lw [] 0 sd s grestore} def /Y { 0 exch d} def /X { 0 d} def 
/K {{pop pop 0 moveto} exch kshow} bind def
/ita {/ang 15 def gsave [1 0 ang dup sin exch cos div 1 0 0] concat} def 
/mp {newpath /y exch def /x exch def} def
/side {[w .77 mul w .23 mul] .385 w mul sd w 0 l currentpoint t -144 r} def
/mr {mp x y w2 0 360 arc} def /m24 {mr s} def /m20 {mr f} def
/mb {mp x y w2 add m w2 neg 0 d 0 w neg d w 0 d 0 w d cl} def
/mt {mp x y w2 add m w2 neg w neg d w 0 d cl} def
/w4 {w 4 div} def
/w6 {w 6 div} def
/w8 {w 8 div} def
/m21 {mb f} def /m25 {mb s} def /m22 {mt f} def /m26{mt s} def
/m23 {mp x y w2 sub m w2 w d w neg 0 d cl f} def
/m27 {mp x y w2 add m w3 neg w2 neg d w3 w2 neg d w3 w2 d cl s} def
/m28 {mp x w2 sub y w2 sub w3 add m w3 0 d  0 w3 neg d w3 0 d 0 w3 d w3 0 d  0 w3 d w3 neg 0 d 0 w3 d w3 neg 0 d 0 w3 neg d w3 neg 0 d cl s } def
/m29 {mp gsave x w2 sub y w2 add w3 sub m currentpoint t 4 {side} repeat cl fill gr} def
/m30 {mp gsave x w2 sub y w2 add w3 sub m currentpoint t 4 {side} repeat cl s gr} def
/m31 {mp x y w2 sub m 0 w d x w2 sub y m w 0 d x w2 sub y w2 add m w w neg d x w2 sub y w2 sub m w w d s} def
/m32 {mp x y w2 sub m w2 w d w neg 0 d cl s} def
/m33 {mp x y w2 add m w3 neg w2 neg d w3 w2 neg d w3 w2 d cl f} def
/m34 {mp x w2 sub y w2 sub w3 add m w3 0 d  0 w3 neg d w3 0 d 0 w3 d w3 0 d  0 w3 d w3 neg 0 d 0 w3 d w3 neg 0 d 0 w3 neg d w3 neg 0 d cl f } def
/m35 {mp x y w2 add m w2 neg w2 neg d w2 w2 neg d w2 w2 d w2 neg w2 d x y w2 sub m 0 w d x w2 sub y m w 0 d s} def
/m36 {mb x w2 sub y w2 add m w w neg d x w2 sub y w2 sub m w w d s} def
/m37 {mp x y m w4 neg w2 d w4 neg w2 neg d w2 0 d  w4 neg w2 neg d w2 0 d w4 neg w2 d w2 0 d w4 neg w2 d w4 neg w2 neg d cl s} def
/m38 {mp x w4 sub y w2 add m w4 neg w4 neg d 0 w2 neg d w4 w4 neg d w2 0 d w4 w4 d 0 w2 d w4 neg w4 d w2 neg 0 d x y w2 sub m 0 w d x w2 sub y m w 0 d cl s} def
/m39 {mp x y m w4 neg w2 d w4 neg w2 neg d w2 0 d  w4 neg w2 neg d w2 0 d w4 neg w2 d w2 0 d w4 neg w2 d w4 neg w2 neg d cl f} def
/m40 {mp x y m w4 w2 d w4 w4 neg d w2 neg w4 neg d w2 w4 neg d w4 neg w4 neg d w4 neg w2 d w4 neg w2 neg d w4 neg w4 d w2 w4 d w2 neg w4 d w4 w4 d w4 w2 neg d cl s} def
/m41 {mp x y m w4 w2 d w4 w4 neg d w2 neg w4 neg d w2 w4 neg d w4 neg w4 neg d w4 neg w2 d w4 neg w2 neg d w4 neg w4 d w2 w4 d w2 neg w4 d w4 w4 d w4 w2 neg d cl f} def
/m42 {mp x y w2 add m w8 neg w2 -3 4 div mul d w2 -3 4 div mul w8 neg d w2 3 4 div mul w8 neg d w8 w2 -3 4 div mul d w8 w2 3 4 div mul d w2 3 4 div mul w8 d w2 -3 4 div mul w8 d w8 neg w2 3 4 div mul d cl s} def
/m43 {mp x y w2 add m w8 neg w2 -3 4 div mul d w2 -3 4 div mul w8 neg d w2 3 4 div mul w8 neg d w8 w2 -3 4 div mul d w8 w2 3 4 div mul d w2 3 4 div mul w8 d w2 -3 4 div mul w8 d w8 neg w2 3 4 div mul d cl f} def
/m44 {mp x y m w6 neg w2 d w2 2 3 div mul 0 d w6 neg w2 neg d w2 w6 d 0 w2 -2 3 div mul d w2 neg w6 d w6 w2 neg d w2 -2 3 div mul 0 d w6 w2 d w2 neg w6 neg d 0 w2 2 3 div mul d w2 w6 neg d cl s} def
/m45 {mp x y m w6 neg w2 d w2 2 3 div mul 0 d w6 neg w2 neg d w2 w6 d 0 w2 -2 3 div mul d w2 neg w6 d w6 w2 neg d w2 -2 3 div mul 0 d w6 w2 d w2 neg w6 neg d 0 w2 2 3 div mul d w2 w6 neg d cl f} def
/m46 {mp x y w4 add m w4 neg w4 d w4 neg w4 neg d  w4 w4 neg d w4 neg w4 neg d w4 w4 neg d w4 w4 d w4 w4 neg d w4 w4 d w4 neg w4 d w4 w4 d w4 neg w4 d w4 neg w4 neg d cl s} def
/m47 {mp x y w4 add m w4 neg w4 d w4 neg w4 neg d w4 w4 neg d w4 neg w4 neg d  w4 w4 neg d w4 w4 d w4 w4 neg d w4 w4 d w4 neg w4 d w4 w4 d w4 neg w4 d w4 neg w4 neg d cl f} def
/m48 {mp x y w4 add m w4 neg w4 d w4 neg w4 neg d w4 w4 neg d  w4 neg w4 neg d w4 w4 neg d w4 w4 d w4 w4 neg d w4 w4 d w4 neg w4 d w4 w4 d w4 neg w4 d w4 neg w4 neg d  w4 w4 neg d w4 neg w4 neg d w4 neg w4 d w4 w4 d cl f} def
/m49 {mp x w2 sub w3 add y w2 sub w3 add m  0 w3 neg d w3 0 d 0 w3 d w3 0 d 0 w3 d w3 neg 0 d 0 w3 d w3 neg 0 d 0 w3 neg d w3 neg 0 d 0 w3 neg d w3 0 d 0 w3 d w3 0 d 0 w3 neg d w3 neg 0 d cl f } def
/m2 {mp x y w2 sub m 0 w d x w2 sub y m w 0 d s} def
/m5 {mp x w2 sub y w2 sub m w w d x w2 sub y w2 add m w w neg d s} def
%%IncludeResource: ProcSet (FontSetInit)
%%IncludeResource: font Times-Roman
%%IncludeResource: font Times-Italic
%%IncludeResource: font Times-Bold
%%IncludeResource: font Times-BoldItalic
%%IncludeResource: font Helvetica
%%IncludeResource: font Helvetica-Oblique
%%IncludeResource: font Helvetica-Bold
%%IncludeResource: font Helvetica-BoldOblique
%%IncludeResource: font Courier
%%IncludeResource: font Courier-Oblique
%%IncludeResource: font Courier-Bold
%%IncludeResource: font Courier-BoldOblique
%%IncludeResource: font Symbol
%%IncludeResource: font ZapfDingbats
/reEncode {exch findfont dup length dict begin {1 index /FID eq  {pop pop} {def} ifelse } forall /Encoding exch def currentdict end dup /FontName get exch definefont pop } def [/Times-Bold /Times-Italic /Times-BoldItalic /Helvetica /Helvetica-Oblique
 /Helvetica-Bold /Helvetica-BoldOblique /Courier /Courier-Oblique /Courier-Bold /Courier-BoldOblique /Times-Roman /AvantGarde-Book /AvantGarde-BookOblique /AvantGarde-Demi /AvantGarde-DemiOblique /Bookman-Demi /Bookman-DemiItalic /Bookman-Light
 /Bookman-LightItalic /Helvetica-Narrow /Helvetica-Narrow-Bold /Helvetica-Narrow-BoldOblique /Helvetica-Narrow-Oblique /NewCenturySchlbk-Roman /NewCenturySchlbk-Bold /NewCenturySchlbk-BoldItalic /NewCenturySchlbk-Italic /Palatino-Bold
 /Palatino-BoldItalic /Palatino-Italic /Palatino-Roman ] {ISOLatin1Encoding reEncode } forall
%%EndProlog
%%BeginSetup
%%EndSetup
newpath  gsave  .25 .25 scale  gsave  0 0 t 1 0 0 c[  ] 0 sd 3 lw 1 1 1 c 2268 2176 0 0 bf black 1 1 1 c 1791 1720 363 348 bf black 1791 1720 363 348 bl 1 1 1 c 1791 1720 363 348 bf black 1791 1720 363 348 bl 0.392 0.825 0.85 c 6 lw 1 1 1 c black
 0.392 0.825 0.85 c 363 348 m 71 X 110 Y 18 X 253 Y 18 X 29 Y 18 X 190 Y 18 X 69 Y 18 X 117 Y 18 X 53 Y 18 X 29 Y 18 X 81 Y 18 X 24 Y 18 X 15 Y 18 X 41 Y 17 X -7 Y 18 X 41 Y 18 X 22 Y 18 X 8 Y 18 X -30 Y 18 X 57 Y 18 X -58 Y 18 X 14 Y 18 X -16 Y 18 X
 30 Y 18 X -41 Y 18 X 39 Y 17 X -49 Y 18 X 5 Y 18 X -29 Y 18 X -2 Y 18 X -21 Y 18 X 5 Y 18 X -15 Y 18 X -39 Y 18 X 35 Y 18 X -25 Y 18 X -62 Y 18 X 20 Y 17 X -7 Y 18 X -50 Y 18 X -26 Y 18 X -13 Y 18 X 2 Y 18 X -4 Y 18 X -17 Y 18 X -25 Y 18 X 2 Y 18 X
 -52 Y 18 X 7 Y 17 X -69 Y 18 X -6 Y 18 X -18 Y 18 X -13 Y 18 X -7 Y 18 X -31 Y 18 X 38 Y 18 X -90 Y 18 X 33 Y 18 X -155 Y 18 X 64 Y 35 X 17 Y 18 X -145 Y 18 X 89 Y 18 X 39 Y 18 X -93 Y 18 X -35 Y 18 X 35 Y 18 X -80 Y 18 X 45 Y 18 X -328 Y 18 X 219 Y
 35 X -219 Y 18 X 110 Y 18 X 109 Y 18 X -219 Y 18 X 283 Y 18 X -173 Y 18 X -110 Y 18 X 219 Y 18 X -219 Y 36 X 219 Y 18 X -109 Y 17 X -110 Y 54 X 110 Y 18 X -110 Y 18 X 110 Y 18 X -110 Y 36 X 110 Y 18 X -110 Y 71 X s black 3 lw 363 348 m 1791 X s 550
 400 m -52 Y s 612 374 m -26 Y s 674 374 m -26 Y s 736 374 m -26 Y s 798 400 m -52 Y s 860 374 m -26 Y s 922 374 m -26 Y s 984 374 m -26 Y s 1046 400 m -52 Y s 1109 374 m -26 Y s 1171 374 m -26 Y s 1233 374 m -26 Y s 1295 400 m -52 Y s 1357 374 m -26
 Y s 1419 374 m -26 Y s 1481 374 m -26 Y s 1543 400 m -52 Y s 1605 374 m -26 Y s 1667 374 m -26 Y s 1729 374 m -26 Y s 1791 400 m -52 Y s 1853 374 m -26 Y s 1915 374 m -26 Y s 1977 374 m -26 Y s 2039 400 m -52 Y s 550 400 m -52 Y s 488 374 m -26 Y s
 426 374 m -26 Y s 364 374 m -26 Y s 2039 400 m -52 Y s 2101 374 m -26 Y s
 gsave  2268 2176 0 0 C 521.27 251.123 t 0 r /Helvetica findfont 102.732 sf 0 0 m (2) show NC gr 
 gsave  2268 2176 0 0 C 764.784 251.123 t 0 r /Helvetica findfont 102.732 sf 0 0 m (4) show NC gr 
 gsave  2268 2176 0 0 C 1019.71 251.123 t 0 r /Helvetica findfont 102.732 sf 0 0 m (6) show NC gr 
 gsave  2268 2176 0 0 C 1267.03 251.123 t 0 r /Helvetica findfont 102.732 sf 0 0 m (8) show NC gr 
 gsave  2268 2176 0 0 C 1483.91 251.123 t 0 r /Helvetica findfont 102.732 sf 0 0 m (10) show NC gr 
 gsave  2268 2176 0 0 C 1731.23 251.123 t 0 r /Helvetica findfont 102.732 sf 0 0 m (12) show NC gr 
 gsave  2268 2176 0 0 C 1978.54 251.123 t 0 r /Helvetica findfont 102.732 sf 0 0 m (14) show NC gr 
 gsave  2268 2176 0 0 C 1575.23 76.0979 t 0 r /Helvetica findfont 102.732 sf 0 0 m (BumpHunter) show NC gr  363 2068 m 1791 X s 550 2016 m 52 Y s 612 2042 m 26 Y s 674 2042 m 26 Y s 736 2042 m 26 Y s 798 2016 m 52 Y s 860 2042 m 26 Y s 922 2042 m 26
 Y s 984 2042 m 26 Y s 1046 2016 m 52 Y s 1109 2042 m 26 Y s 1171 2042 m 26 Y s 1233 2042 m 26 Y s 1295 2016 m 52 Y s 1357 2042 m 26 Y s 1419 2042 m 26 Y s 1481 2042 m 26 Y s 1543 2016 m 52 Y s 1605 2042 m 26 Y s 1667 2042 m 26 Y s 1729 2042 m 26 Y s
 1791 2016 m 52 Y s 1853 2042 m 26 Y s 1915 2042 m 26 Y s 1977 2042 m 26 Y s 2039 2016 m 52 Y s 550 2016 m 52 Y s 488 2042 m 26 Y s 426 2042 m 26 Y s 364 2042 m 26 Y s 2039 2016 m 52 Y s 2101 2042 m 26 Y s 363 348 m 1720 Y s 390 348 m -27 X s 390 377
 m -27 X s 390 401 m -27 X s 390 422 m -27 X s 390 441 m -27 X s 417 458 m -54 X s
 gsave  2268 2176 0 0 C 300.587 418.538 t 0 r /Helvetica findfont 102.732 sf 0 0 m (1) show NC gr  390 567 m -27 X s 390 631 m -27 X s 390 676 m -27 X s 390 711 m -27 X s 390 740 m -27 X s 390 765 m -27 X s 390 786 m -27 X s 390 804 m -27 X s 417 821
 m -54 X s
 gsave  2268 2176 0 0 C 228.294 783.808 t 0 r /Helvetica findfont 102.732 sf 0 0 m (10) show NC gr  390 930 m -27 X s 390 994 m -27 X s 390 1040 m -27 X s 390 1075 m -27 X s 390 1103 m -27 X s 390 1128 m -27 X s 390 1149 m -27 X s 390 1167 m -27 X s
 417 1184 m -54 X s
 gsave  2268 2176 0 0 C 300.587 1183.32 t 0 r /Helvetica findfont 68.4881 sf 0 0 m (2) show NC gr 
 gsave  2268 2176 0 0 C 190.245 1137.66 t 0 r /Helvetica findfont 102.732 sf 0 0 m (10) show NC gr  390 1293 m -27 X s 390 1357 m -27 X s 390 1403 m -27 X s 390 1438 m -27 X s 390 1467 m -27 X s 390 1491 m -27 X s 390 1512 m -27 X s 390 1531 m -27 X
 s 417 1547 m -54 X s
 gsave  2268 2176 0 0 C 300.587 1548.59 t 0 r /Helvetica findfont 68.4881 sf 0 0 m (3) show NC gr 
 gsave  2268 2176 0 0 C 190.245 1499.13 t 0 r /Helvetica findfont 102.732 sf 0 0 m (10) show NC gr  390 1657 m -27 X s 390 1721 m -27 X s 390 1766 m -27 X s 390 1801 m -27 X s 390 1830 m -27 X s 390 1854 m -27 X s 390 1875 m -27 X s 390 1894 m -27 X
 s 417 1911 m -54 X s
 gsave  2268 2176 0 0 C 300.587 1910.06 t 0 r /Helvetica findfont 68.4881 sf 0 0 m (4) show NC gr 
 gsave  2268 2176 0 0 C 190.245 1864.4 t 0 r /Helvetica findfont 102.732 sf 0 0 m (10) show NC gr  390 2020 m -27 X s
 gsave  2268 2176 0 0 C 133.171 1133.86 t 90 r /Helvetica findfont 102.732 sf 0 0 m (Pseudo experiments) show NC gr  2154 348 m 1720 Y s 2127 348 m 27 X s 2127 377 m 27 X s 2127 401 m 27 X s 2127 422 m 27 X s 2127 441 m 27 X s 2101 458 m 53 X s 2127
 567 m 27 X s 2127 631 m 27 X s 2127 676 m 27 X s 2127 711 m 27 X s 2127 740 m 27 X s 2127 765 m 27 X s 2127 786 m 27 X s 2127 804 m 27 X s 2101 821 m 53 X s 2127 930 m 27 X s 2127 994 m 27 X s 2127 1040 m 27 X s 2127 1075 m 27 X s 2127 1103 m 27 X s
 2127 1128 m 27 X s 2127 1149 m 27 X s 2127 1167 m 27 X s 2101 1184 m 53 X s 2127 1293 m 27 X s 2127 1357 m 27 X s 2127 1403 m 27 X s 2127 1438 m 27 X s 2127 1467 m 27 X s 2127 1491 m 27 X s 2127 1512 m 27 X s 2127 1531 m 27 X s 2101 1547 m 53 X s
 2127 1657 m 27 X s 2127 1721 m 27 X s 2127 1766 m 27 X s 2127 1801 m 27 X s 2127 1830 m 27 X s 2127 1854 m 27 X s 2127 1875 m 27 X s 2127 1894 m 27 X s 2101 1911 m 53 X s 2127 2020 m 27 X s 0.392 0.825 0.85 c black 0.392 0.825 0.85 c 18 997 917 348
 bf 18 995 918 348 bf 18 974 936 348 bf 18 979 954 348 bf 18 964 972 348 bf 18 925 990 348 bf 18 960 1008 348 bf 18 935 1026 348 bf 17 873 1044 348 bf 17 893 1062 348 bf 17 886 1080 348 bf 18 836 1097 348 bf 18 810 1115 348 bf 18 797 1133 348 bf 18
 799 1151 348 bf 18 795 1169 348 bf 18 778 1187 348 bf 18 753 1205 348 bf 18 755 1223 348 bf 17 703 1241 348 bf 17 710 1259 348 bf 17 641 1277 348 bf 17 635 1295 348 bf 18 617 1312 348 bf 18 604 1330 348 bf 18 597 1348 348 bf 18 566 1366 348 bf 18
 604 1384 348 bf 18 514 1402 348 bf 18 547 1420 348 bf 18 392 1438 348 bf 17 456 1456 348 bf 17 456 1474 348 bf 17 473 1492 348 bf 18 328 1509 348 bf 18 417 1527 348 bf 18 456 1545 348 bf 18 363 1563 348 bf 18 328 1581 348 bf 18 363 1599 348 bf 18
 283 1617 348 bf 18 328 1635 348 bf 17 219 1671 348 bf 17 219 1689 348 bf 18 110 1724 348 bf 18 219 1742 348 bf 18 283 1778 348 bf 18 110 1796 348 bf 18 219 1832 348 bf 17 219 1886 348 bf 17 110 1904 348 bf 18 110 1975 348 bf 18 110 2011 348 bf 18
 110 2065 348 bf black
 gsave  2268 2176 0 0 C 780.003 1620.88 t 0 r /Helvetica findfont 79.9028 sf 0 0 m (Pseudo\255experiments) show NC gr  1 1 1 c 3 lw 522 1605 m 214 X 76 Y -214 X f 0.392 0.825 0.85 c 6 lw 522 1643 m 214 X s black
 gsave  2268 2176 0 0 C 780.003 1510.54 t 0 r /Helvetica findfont 79.9028 sf 0 0 m (Value in Data) show NC gr  0.808 0.063 0.175 c 522 1534 m 214 X s black
 gsave  2268 2176 0 0 C 1213.76 1826.35 t 0 r /Helvetica findfont 53.2685 sf 0 0 m (\2551) show NC gr 
 gsave  2268 2176 0 0 C 578.344 1788.3 t 0 r /Helvetica findfont 79.9028 sf 0 0 m (=13 TeV, 139.0 fb) show NC gr 
 gsave  2268 2176 0 0 C 540.295 1788.3 t 0 r /Helvetica findfont 79.9028 sf 0 0 m (s) show NC gr  514 1834 m 7 -50 d s 3 lw 521 1784 m 12 73 d s 533 1857 m 45 X s
 gsave  2268 2176 0 0 C 547.905 1350.74 t 0 r /Helvetica findfont 79.9028 sf 0 0 m (\255value = 0.28) show NC gr 
 gsave  2268 2176 0 0 C 498.441 1350.74 t 0 r /Helvetica-Oblique findfont 79.9028 sf 0 0 m (p) show NC gr  363 348 m 1791 X s 550 400 m -52 Y s 612 374 m -26 Y s 674 374 m -26 Y s 736 374 m -26 Y s 798 400 m -52 Y s 860 374 m -26 Y s 922 374 m -26 Y
 s 984 374 m -26 Y s 1046 400 m -52 Y s 1109 374 m -26 Y s 1171 374 m -26 Y s 1233 374 m -26 Y s 1295 400 m -52 Y s 1357 374 m -26 Y s 1419 374 m -26 Y s 1481 374 m -26 Y s 1543 400 m -52 Y s 1605 374 m -26 Y s 1667 374 m -26 Y s 1729 374 m -26 Y s
 1791 400 m -52 Y s 1853 374 m -26 Y s 1915 374 m -26 Y s 1977 374 m -26 Y s 2039 400 m -52 Y s 550 400 m -52 Y s 488 374 m -26 Y s 426 374 m -26 Y s 364 374 m -26 Y s 2039 400 m -52 Y s 2101 374 m -26 Y s 363 2068 m 1791 X s 550 2016 m 52 Y s 612
 2042 m 26 Y s 674 2042 m 26 Y s 736 2042 m 26 Y s 798 2016 m 52 Y s 860 2042 m 26 Y s 922 2042 m 26 Y s 984 2042 m 26 Y s 1046 2016 m 52 Y s 1109 2042 m 26 Y s 1171 2042 m 26 Y s 1233 2042 m 26 Y s 1295 2016 m 52 Y s 1357 2042 m 26 Y s 1419 2042 m
 26 Y s 1481 2042 m 26 Y s 1543 2016 m 52 Y s 1605 2042 m 26 Y s 1667 2042 m 26 Y s 1729 2042 m 26 Y s 1791 2016 m 52 Y s 1853 2042 m 26 Y s 1915 2042 m 26 Y s 1977 2042 m 26 Y s 2039 2016 m 52 Y s 550 2016 m 52 Y s 488 2042 m 26 Y s 426 2042 m 26 Y
 s 364 2042 m 26 Y s 2039 2016 m 52 Y s 2101 2042 m 26 Y s 363 348 m 1720 Y s 390 348 m -27 X s 390 377 m -27 X s 390 401 m -27 X s 390 422 m -27 X s 390 441 m -27 X s 417 458 m -54 X s 390 567 m -27 X s 390 631 m -27 X s 390 676 m -27 X s 390 711 m
 -27 X s 390 740 m -27 X s 390 765 m -27 X s 390 786 m -27 X s 390 804 m -27 X s 417 821 m -54 X s 390 930 m -27 X s 390 994 m -27 X s 390 1040 m -27 X s 390 1075 m -27 X s 390 1103 m -27 X s 390 1128 m -27 X s 390 1149 m -27 X s 390 1167 m -27 X s
 417 1184 m -54 X s 390 1293 m -27 X s 390 1357 m -27 X s 390 1403 m -27 X s 390 1438 m -27 X s 390 1467 m -27 X s 390 1491 m -27 X s 390 1512 m -27 X s 390 1531 m -27 X s 417 1547 m -54 X s 390 1657 m -27 X s 390 1721 m -27 X s 390 1766 m -27 X s
 390 1801 m -27 X s 390 1830 m -27 X s 390 1854 m -27 X s 390 1875 m -27 X s 390 1894 m -27 X s 417 1911 m -54 X s 390 2020 m -27 X s 2154 348 m 1720 Y s 2127 348 m 27 X s 2127 377 m 27 X s 2127 401 m 27 X s 2127 422 m 27 X s 2127 441 m 27 X s 2101
 458 m 53 X s 2127 567 m 27 X s 2127 631 m 27 X s 2127 676 m 27 X s 2127 711 m 27 X s 2127 740 m 27 X s 2127 765 m 27 X s 2127 786 m 27 X s 2127 804 m 27 X s 2101 821 m 53 X s 2127 930 m 27 X s 2127 994 m 27 X s 2127 1040 m 27 X s 2127 1075 m 27 X s
 2127 1103 m 27 X s 2127 1128 m 27 X s 2127 1149 m 27 X s 2127 1167 m 27 X s 2101 1184 m 53 X s 2127 1293 m 27 X s 2127 1357 m 27 X s 2127 1403 m 27 X s 2127 1438 m 27 X s 2127 1467 m 27 X s 2127 1491 m 27 X s 2127 1512 m 27 X s 2127 1531 m 27 X s
 2101 1547 m 53 X s 2127 1657 m 27 X s 2127 1721 m 27 X s 2127 1766 m 27 X s 2127 1801 m 27 X s 2127 1830 m 27 X s 2127 1854 m 27 X s 2127 1875 m 27 X s 2127 1894 m 27 X s 2101 1911 m 53 X s 2127 2020 m 27 X s 0.808 0.063 0.175 c 6 lw 926 520 m -74 Y
 s 3 lw 972 446 m -46 -80 d -46 80 d f 6 lw 972 446 m -46 -80 d -46 80 d 92 X cl s
 gr  gr showpage
end
%%EOF
