%!PS-Adobe-2.0 EPSF-2.0
%%BoundingBox:  0 0 567 544
%%Title: TestAnomalousPoints/chi2StatPlot_our3Par_496.eps: 
%%Creator: ROOT Version 6.16/00
%%CreationDate: Wed Jan 15 15:47:48 2020
%%DocumentNeededResources: ProcSet (FontSetInit)
%%EndComments
%%BeginProlog
80 dict begin
/s {stroke} def /l {lineto} def /m {moveto} def /t {translate} def
/r {rotate} def /rl {roll}  def /R {repeat} def
/d {rlineto} def /rm {rmoveto} def /gr {grestore} def /f {eofill} def
/c {setrgbcolor} def /black {0 setgray} def /sd {setdash} def
/cl {closepath} def /sf {scalefont setfont} def /lw {setlinewidth} def
/box {m dup 0 exch d exch 0 d 0 exch neg d cl} def
/NC{systemdict begin initclip end}def/C{NC box clip newpath}def
/bl {box s} def /bf {gsave box gsave f grestore 1 lw [] 0 sd s grestore} def /Y { 0 exch d} def /X { 0 d} def 
/K {{pop pop 0 moveto} exch kshow} bind def
/ita {/ang 15 def gsave [1 0 ang dup sin exch cos div 1 0 0] concat} def 
/mp {newpath /y exch def /x exch def} def
/side {[w .77 mul w .23 mul] .385 w mul sd w 0 l currentpoint t -144 r} def
/mr {mp x y w2 0 360 arc} def /m24 {mr s} def /m20 {mr f} def
/mb {mp x y w2 add m w2 neg 0 d 0 w neg d w 0 d 0 w d cl} def
/mt {mp x y w2 add m w2 neg w neg d w 0 d cl} def
/w4 {w 4 div} def
/w6 {w 6 div} def
/w8 {w 8 div} def
/m21 {mb f} def /m25 {mb s} def /m22 {mt f} def /m26{mt s} def
/m23 {mp x y w2 sub m w2 w d w neg 0 d cl f} def
/m27 {mp x y w2 add m w3 neg w2 neg d w3 w2 neg d w3 w2 d cl s} def
/m28 {mp x w2 sub y w2 sub w3 add m w3 0 d  0 w3 neg d w3 0 d 0 w3 d w3 0 d  0 w3 d w3 neg 0 d 0 w3 d w3 neg 0 d 0 w3 neg d w3 neg 0 d cl s } def
/m29 {mp gsave x w2 sub y w2 add w3 sub m currentpoint t 4 {side} repeat cl fill gr} def
/m30 {mp gsave x w2 sub y w2 add w3 sub m currentpoint t 4 {side} repeat cl s gr} def
/m31 {mp x y w2 sub m 0 w d x w2 sub y m w 0 d x w2 sub y w2 add m w w neg d x w2 sub y w2 sub m w w d s} def
/m32 {mp x y w2 sub m w2 w d w neg 0 d cl s} def
/m33 {mp x y w2 add m w3 neg w2 neg d w3 w2 neg d w3 w2 d cl f} def
/m34 {mp x w2 sub y w2 sub w3 add m w3 0 d  0 w3 neg d w3 0 d 0 w3 d w3 0 d  0 w3 d w3 neg 0 d 0 w3 d w3 neg 0 d 0 w3 neg d w3 neg 0 d cl f } def
/m35 {mp x y w2 add m w2 neg w2 neg d w2 w2 neg d w2 w2 d w2 neg w2 d x y w2 sub m 0 w d x w2 sub y m w 0 d s} def
/m36 {mb x w2 sub y w2 add m w w neg d x w2 sub y w2 sub m w w d s} def
/m37 {mp x y m w4 neg w2 d w4 neg w2 neg d w2 0 d  w4 neg w2 neg d w2 0 d w4 neg w2 d w2 0 d w4 neg w2 d w4 neg w2 neg d cl s} def
/m38 {mp x w4 sub y w2 add m w4 neg w4 neg d 0 w2 neg d w4 w4 neg d w2 0 d w4 w4 d 0 w2 d w4 neg w4 d w2 neg 0 d x y w2 sub m 0 w d x w2 sub y m w 0 d cl s} def
/m39 {mp x y m w4 neg w2 d w4 neg w2 neg d w2 0 d  w4 neg w2 neg d w2 0 d w4 neg w2 d w2 0 d w4 neg w2 d w4 neg w2 neg d cl f} def
/m40 {mp x y m w4 w2 d w4 w4 neg d w2 neg w4 neg d w2 w4 neg d w4 neg w4 neg d w4 neg w2 d w4 neg w2 neg d w4 neg w4 d w2 w4 d w2 neg w4 d w4 w4 d w4 w2 neg d cl s} def
/m41 {mp x y m w4 w2 d w4 w4 neg d w2 neg w4 neg d w2 w4 neg d w4 neg w4 neg d w4 neg w2 d w4 neg w2 neg d w4 neg w4 d w2 w4 d w2 neg w4 d w4 w4 d w4 w2 neg d cl f} def
/m42 {mp x y w2 add m w8 neg w2 -3 4 div mul d w2 -3 4 div mul w8 neg d w2 3 4 div mul w8 neg d w8 w2 -3 4 div mul d w8 w2 3 4 div mul d w2 3 4 div mul w8 d w2 -3 4 div mul w8 d w8 neg w2 3 4 div mul d cl s} def
/m43 {mp x y w2 add m w8 neg w2 -3 4 div mul d w2 -3 4 div mul w8 neg d w2 3 4 div mul w8 neg d w8 w2 -3 4 div mul d w8 w2 3 4 div mul d w2 3 4 div mul w8 d w2 -3 4 div mul w8 d w8 neg w2 3 4 div mul d cl f} def
/m44 {mp x y m w6 neg w2 d w2 2 3 div mul 0 d w6 neg w2 neg d w2 w6 d 0 w2 -2 3 div mul d w2 neg w6 d w6 w2 neg d w2 -2 3 div mul 0 d w6 w2 d w2 neg w6 neg d 0 w2 2 3 div mul d w2 w6 neg d cl s} def
/m45 {mp x y m w6 neg w2 d w2 2 3 div mul 0 d w6 neg w2 neg d w2 w6 d 0 w2 -2 3 div mul d w2 neg w6 d w6 w2 neg d w2 -2 3 div mul 0 d w6 w2 d w2 neg w6 neg d 0 w2 2 3 div mul d w2 w6 neg d cl f} def
/m46 {mp x y w4 add m w4 neg w4 d w4 neg w4 neg d  w4 w4 neg d w4 neg w4 neg d w4 w4 neg d w4 w4 d w4 w4 neg d w4 w4 d w4 neg w4 d w4 w4 d w4 neg w4 d w4 neg w4 neg d cl s} def
/m47 {mp x y w4 add m w4 neg w4 d w4 neg w4 neg d w4 w4 neg d w4 neg w4 neg d  w4 w4 neg d w4 w4 d w4 w4 neg d w4 w4 d w4 neg w4 d w4 w4 d w4 neg w4 d w4 neg w4 neg d cl f} def
/m48 {mp x y w4 add m w4 neg w4 d w4 neg w4 neg d w4 w4 neg d  w4 neg w4 neg d w4 w4 neg d w4 w4 d w4 w4 neg d w4 w4 d w4 neg w4 d w4 w4 d w4 neg w4 d w4 neg w4 neg d  w4 w4 neg d w4 neg w4 neg d w4 neg w4 d w4 w4 d cl f} def
/m49 {mp x w2 sub w3 add y w2 sub w3 add m  0 w3 neg d w3 0 d 0 w3 d w3 0 d 0 w3 d w3 neg 0 d 0 w3 d w3 neg 0 d 0 w3 neg d w3 neg 0 d 0 w3 neg d w3 0 d 0 w3 d w3 0 d 0 w3 neg d w3 neg 0 d cl f } def
/m2 {mp x y w2 sub m 0 w d x w2 sub y m w 0 d s} def
/m5 {mp x w2 sub y w2 sub m w w d x w2 sub y w2 add m w w neg d s} def
%%IncludeResource: ProcSet (FontSetInit)
%%IncludeResource: font Times-Roman
%%IncludeResource: font Times-Italic
%%IncludeResource: font Times-Bold
%%IncludeResource: font Times-BoldItalic
%%IncludeResource: font Helvetica
%%IncludeResource: font Helvetica-Oblique
%%IncludeResource: font Helvetica-Bold
%%IncludeResource: font Helvetica-BoldOblique
%%IncludeResource: font Courier
%%IncludeResource: font Courier-Oblique
%%IncludeResource: font Courier-Bold
%%IncludeResource: font Courier-BoldOblique
%%IncludeResource: font Symbol
%%IncludeResource: font ZapfDingbats
/reEncode {exch findfont dup length dict begin {1 index /FID eq  {pop pop} {def} ifelse } forall /Encoding exch def currentdict end dup /FontName get exch definefont pop } def [/Times-Bold /Times-Italic /Times-BoldItalic /Helvetica /Helvetica-Oblique
 /Helvetica-Bold /Helvetica-BoldOblique /Courier /Courier-Oblique /Courier-Bold /Courier-BoldOblique /Times-Roman /AvantGarde-Book /AvantGarde-BookOblique /AvantGarde-Demi /AvantGarde-DemiOblique /Bookman-Demi /Bookman-DemiItalic /Bookman-Light
 /Bookman-LightItalic /Helvetica-Narrow /Helvetica-Narrow-Bold /Helvetica-Narrow-BoldOblique /Helvetica-Narrow-Oblique /NewCenturySchlbk-Roman /NewCenturySchlbk-Bold /NewCenturySchlbk-BoldItalic /NewCenturySchlbk-Italic /Palatino-Bold
 /Palatino-BoldItalic /Palatino-Italic /Palatino-Roman ] {ISOLatin1Encoding reEncode } forall
%%EndProlog
%%BeginSetup
%%EndSetup
newpath  gsave  .25 .25 scale  gsave  0 0 t 1 0 0 c[  ] 0 sd 3 lw 1 1 1 c 2268 2177 0 0 bf black 1 1 1 c 1791 1720 363 348 bf black 1791 1720 363 348 bl 1 1 1 c 1791 1720 363 348 bf black 1791 1720 363 348 bl 0.392 0.825 0.85 c 6 lw 1 1 1 c black
 0.392 0.825 0.85 c 363 348 m 71 X 220 Y 18 X 64 Y 18 X 45 Y 18 X 198 Y 18 X 110 Y 18 X 79 Y 18 X 73 Y 18 X 67 Y 18 X 40 Y 18 X 77 Y 18 X -4 Y 18 X 38 Y 17 X 38 Y 18 X 13 Y 18 X 16 Y 18 X 10 Y 18 X 17 Y 18 X -13 Y 18 X 4 Y 18 X -20 Y 18 X 18 Y 18 X
 -1 Y 18 X -29 Y 18 X 9 Y 17 X -8 Y 18 X -14 Y 18 X -29 Y 18 X -22 Y 18 X -8 Y 18 X -34 Y 18 X 11 Y 18 X -34 Y 18 X -11 Y 18 X -54 Y 18 X -14 Y 18 X 22 Y 17 X -71 Y 18 X -21 Y 18 X 13 Y 18 X -51 Y 18 X -25 Y 18 X -61 Y 18 X 5 Y 18 X 18 Y 18 X -44 Y
 18 X -53 Y 18 X -8 Y 17 X -87 Y 18 X 38 Y 18 X -11 Y 18 X -27 Y 18 X -50 Y 18 X -46 Y 18 X 25 Y 36 X -308 Y 18 X 174 Y 18 X 109 Y 35 X -109 Y 18 X 81 Y 18 X -36 Y 36 X -329 Y 18 X 110 Y 18 X 110 Y 18 X -220 Y 18 X 220 Y 18 X 64 Y 18 X -284 Y 18 X
 220 Y 17 X -220 Y 18 X 110 Y 36 X -110 Y 36 X 110 Y 18 X 110 Y 18 X -220 Y 54 X 110 Y 18 X -110 Y 161 X 110 Y 18 X -110 Y 71 X s black 3 lw 363 348 m 1791 X s 564 400 m -52 Y s 619 374 m -26 Y s 674 374 m -26 Y s 729 374 m -26 Y s 784 374 m -26 Y s
 839 400 m -52 Y s 894 374 m -26 Y s 949 374 m -26 Y s 1004 374 m -26 Y s 1059 374 m -26 Y s 1114 400 m -52 Y s 1169 374 m -26 Y s 1224 374 m -26 Y s 1280 374 m -26 Y s 1335 374 m -26 Y s 1390 400 m -52 Y s 1445 374 m -26 Y s 1500 374 m -26 Y s 1555
 374 m -26 Y s 1610 374 m -26 Y s 1665 400 m -52 Y s 1720 374 m -26 Y s 1775 374 m -26 Y s 1830 374 m -26 Y s 1885 374 m -26 Y s 1940 400 m -52 Y s 564 400 m -52 Y s 509 374 m -26 Y s 454 374 m -26 Y s 399 374 m -26 Y s 1940 400 m -52 Y s 1995 374 m
 -26 Y s 2050 374 m -26 Y s 2105 374 m -26 Y s
 gsave  2268 2177 0 0 C 504.358 254.075 t 0 r /Helvetica findfont 102.389 sf 0 0 m (10) show NC gr 
 gsave  2268 2177 0 0 C 781.187 254.075 t 0 r /Helvetica findfont 102.389 sf 0 0 m (20) show NC gr 
 gsave  2268 2177 0 0 C 1054.22 254.075 t 0 r /Helvetica findfont 102.389 sf 0 0 m (30) show NC gr 
 gsave  2268 2177 0 0 C 1331.05 254.075 t 0 r /Helvetica findfont 102.389 sf 0 0 m (40) show NC gr 
 gsave  2268 2177 0 0 C 1604.09 254.075 t 0 r /Helvetica findfont 102.389 sf 0 0 m (50) show NC gr 
 gsave  2268 2177 0 0 C 1880.92 254.075 t 0 r /Helvetica findfont 102.389 sf 0 0 m (60) show NC gr 
 gsave  2268 2177 0 0 C 2116.03 106.181 t 0 r /Helvetica findfont 68.259 sf 0 0 m (2) show NC gr 
 gsave  2268 2177 0 0 C 2059.15 75.8434 t 0 r /Symbol findfont 102.389 sf 0 0 m (c) show NC gr  363 2068 m 1791 X s 564 2016 m 52 Y s 619 2042 m 26 Y s 674 2042 m 26 Y s 729 2042 m 26 Y s 784 2042 m 26 Y s 839 2016 m 52 Y s 894 2042 m 26 Y s 949 2042
 m 26 Y s 1004 2042 m 26 Y s 1059 2042 m 26 Y s 1114 2016 m 52 Y s 1169 2042 m 26 Y s 1224 2042 m 26 Y s 1280 2042 m 26 Y s 1335 2042 m 26 Y s 1390 2016 m 52 Y s 1445 2042 m 26 Y s 1500 2042 m 26 Y s 1555 2042 m 26 Y s 1610 2042 m 26 Y s 1665 2016 m
 52 Y s 1720 2042 m 26 Y s 1775 2042 m 26 Y s 1830 2042 m 26 Y s 1885 2042 m 26 Y s 1940 2016 m 52 Y s 564 2016 m 52 Y s 509 2042 m 26 Y s 454 2042 m 26 Y s 399 2042 m 26 Y s 1940 2016 m 52 Y s 1995 2042 m 26 Y s 2050 2042 m 26 Y s 2105 2042 m 26 Y s
 363 348 m 1720 Y s 390 348 m -27 X s 390 377 m -27 X s 390 401 m -27 X s 390 423 m -27 X s 390 441 m -27 X s 417 458 m -54 X s
 gsave  2268 2177 0 0 C 303.373 417.138 t 0 r /Helvetica findfont 102.389 sf 0 0 m (1) show NC gr  390 568 m -27 X s 390 632 m -27 X s 390 677 m -27 X s 390 713 m -27 X s 390 741 m -27 X s 390 766 m -27 X s 390 787 m -27 X s 390 806 m -27 X s 417 822
 m -54 X s
 gsave  2268 2177 0 0 C 231.322 784.979 t 0 r /Helvetica findfont 102.389 sf 0 0 m (10) show NC gr  390 932 m -27 X s 390 996 m -27 X s 390 1041 m -27 X s 390 1077 m -27 X s 390 1106 m -27 X s 390 1130 m -27 X s 390 1151 m -27 X s 390 1170 m -27 X s
 417 1186 m -54 X s
 gsave  2268 2177 0 0 C 303.373 1183.16 t 0 r /Helvetica findfont 68.259 sf 0 0 m (2) show NC gr 
 gsave  2268 2177 0 0 C 193.401 1137.65 t 0 r /Helvetica findfont 102.389 sf 0 0 m (10) show NC gr  390 1296 m -27 X s 390 1360 m -27 X s 390 1406 m -27 X s 390 1441 m -27 X s 390 1470 m -27 X s 390 1494 m -27 X s 390 1515 m -27 X s 390 1534 m -27 X
 s 417 1551 m -54 X s
 gsave  2268 2177 0 0 C 303.373 1551 t 0 r /Helvetica findfont 68.259 sf 0 0 m (3) show NC gr 
 gsave  2268 2177 0 0 C 193.401 1501.7 t 0 r /Helvetica findfont 102.389 sf 0 0 m (10) show NC gr  390 1660 m -27 X s 390 1724 m -27 X s 390 1770 m -27 X s 390 1805 m -27 X s 390 1834 m -27 X s 390 1858 m -27 X s 390 1880 m -27 X s 390 1898 m -27 X s
 417 1915 m -54 X s
 gsave  2268 2177 0 0 C 303.373 1911.25 t 0 r /Helvetica findfont 68.259 sf 0 0 m (4) show NC gr 
 gsave  2268 2177 0 0 C 193.401 1865.75 t 0 r /Helvetica findfont 102.389 sf 0 0 m (10) show NC gr  390 2025 m -27 X s
 gsave  2268 2177 0 0 C 132.726 1076.98 t 90 r /Helvetica findfont 102.389 sf 0 0 m (Pseudo\255exeperiments) show NC gr  2154 348 m 1720 Y s 2127 348 m 27 X s 2127 377 m 27 X s 2127 401 m 27 X s 2127 423 m 27 X s 2127 441 m 27 X s 2101 458 m 53 X s
 2127 568 m 27 X s 2127 632 m 27 X s 2127 677 m 27 X s 2127 713 m 27 X s 2127 741 m 27 X s 2127 766 m 27 X s 2127 787 m 27 X s 2127 806 m 27 X s 2101 822 m 53 X s 2127 932 m 27 X s 2127 996 m 27 X s 2127 1041 m 27 X s 2127 1077 m 27 X s 2127 1106 m
 27 X s 2127 1130 m 27 X s 2127 1151 m 27 X s 2127 1170 m 27 X s 2101 1186 m 53 X s 2127 1296 m 27 X s 2127 1360 m 27 X s 2127 1406 m 27 X s 2127 1441 m 27 X s 2127 1470 m 27 X s 2127 1494 m 27 X s 2127 1515 m 27 X s 2127 1534 m 27 X s 2101 1551 m 53
 X s 2127 1660 m 27 X s 2127 1724 m 27 X s 2127 1770 m 27 X s 2127 1805 m 27 X s 2127 1834 m 27 X s 2127 1858 m 27 X s 2127 1880 m 27 X s 2127 1898 m 27 X s 2101 1915 m 53 X s 2127 2025 m 27 X s 0.392 0.825 0.85 c black 0.392 0.825 0.85 c 18 663 1204
 348 bf 18 681 1205 348 bf 18 637 1223 348 bf 17 584 1241 348 bf 17 576 1259 348 bf 17 489 1277 348 bf 17 527 1295 348 bf 18 516 1312 348 bf 18 489 1330 348 bf 18 439 1348 348 bf 18 393 1366 348 bf 18 418 1384 348 bf 18 418 1402 348 bf 18 110 1420
 348 bf 18 284 1438 348 bf 17 393 1456 348 bf 17 393 1474 348 bf 17 284 1492 348 bf 18 365 1509 348 bf 18 329 1527 348 bf 18 329 1545 348 bf 18 110 1581 348 bf 18 220 1599 348 bf 18 220 1635 348 bf 18 284 1653 348 bf 17 220 1689 348 bf 18 110 1724
 348 bf 18 110 1742 348 bf 18 110 1796 348 bf 18 220 1814 348 bf 17 110 1886 348 bf 18 110 2065 348 bf black
 gsave  2268 2177 0 0 C 781.187 1619.26 t 0 r /Helvetica findfont 79.6355 sf 0 0 m (Pseudo\255experiments) show NC gr  1 1 1 c 3 lw 522 1605 m 214 X 77 Y -214 X f 0.392 0.825 0.85 c 6 lw 522 1643 m 214 X s black
 gsave  2268 2177 0 0 C 781.187 1513.08 t 0 r /Helvetica findfont 79.6355 sf 0 0 m (Value in Data) show NC gr  0.808 0.063 0.175 c 522 1535 m 214 X s black
 gsave  2268 2177 0 0 C 1209.7 1824.03 t 0 r /Helvetica findfont 53.0904 sf 0 0 m (\2551) show NC gr 
 gsave  2268 2177 0 0 C 576.41 1786.11 t 0 r /Helvetica findfont 79.6355 sf 0 0 m (=13 TeV, 139.0 fb) show NC gr 
 gsave  2268 2177 0 0 C 538.488 1786.11 t 0 r /Helvetica findfont 79.6355 sf 0 0 m (s) show NC gr  512 1832 m 8 -50 d s 3 lw 520 1782 m 11 72 d s 531 1854 m 45 X s
 gsave  2268 2177 0 0 C 546.072 1350.01 t 0 r /Helvetica findfont 79.6355 sf 0 0 m (\255value = 0.02) show NC gr 
 gsave  2268 2177 0 0 C 496.774 1350.01 t 0 r /Helvetica-Oblique findfont 79.6355 sf 0 0 m (p) show NC gr  363 348 m 1791 X s 564 400 m -52 Y s 619 374 m -26 Y s 674 374 m -26 Y s 729 374 m -26 Y s 784 374 m -26 Y s 839 400 m -52 Y s 894 374 m -26 Y
 s 949 374 m -26 Y s 1004 374 m -26 Y s 1059 374 m -26 Y s 1114 400 m -52 Y s 1169 374 m -26 Y s 1224 374 m -26 Y s 1280 374 m -26 Y s 1335 374 m -26 Y s 1390 400 m -52 Y s 1445 374 m -26 Y s 1500 374 m -26 Y s 1555 374 m -26 Y s 1610 374 m -26 Y s
 1665 400 m -52 Y s 1720 374 m -26 Y s 1775 374 m -26 Y s 1830 374 m -26 Y s 1885 374 m -26 Y s 1940 400 m -52 Y s 564 400 m -52 Y s 509 374 m -26 Y s 454 374 m -26 Y s 399 374 m -26 Y s 1940 400 m -52 Y s 1995 374 m -26 Y s 2050 374 m -26 Y s 2105
 374 m -26 Y s 363 2068 m 1791 X s 564 2016 m 52 Y s 619 2042 m 26 Y s 674 2042 m 26 Y s 729 2042 m 26 Y s 784 2042 m 26 Y s 839 2016 m 52 Y s 894 2042 m 26 Y s 949 2042 m 26 Y s 1004 2042 m 26 Y s 1059 2042 m 26 Y s 1114 2016 m 52 Y s 1169 2042 m 26
 Y s 1224 2042 m 26 Y s 1280 2042 m 26 Y s 1335 2042 m 26 Y s 1390 2016 m 52 Y s 1445 2042 m 26 Y s 1500 2042 m 26 Y s 1555 2042 m 26 Y s 1610 2042 m 26 Y s 1665 2016 m 52 Y s 1720 2042 m 26 Y s 1775 2042 m 26 Y s 1830 2042 m 26 Y s 1885 2042 m 26 Y
 s 1940 2016 m 52 Y s 564 2016 m 52 Y s 509 2042 m 26 Y s 454 2042 m 26 Y s 399 2042 m 26 Y s 1940 2016 m 52 Y s 1995 2042 m 26 Y s 2050 2042 m 26 Y s 2105 2042 m 26 Y s 363 348 m 1720 Y s 390 348 m -27 X s 390 377 m -27 X s 390 401 m -27 X s 390 423
 m -27 X s 390 441 m -27 X s 417 458 m -54 X s 390 568 m -27 X s 390 632 m -27 X s 390 677 m -27 X s 390 713 m -27 X s 390 741 m -27 X s 390 766 m -27 X s 390 787 m -27 X s 390 806 m -27 X s 417 822 m -54 X s 390 932 m -27 X s 390 996 m -27 X s 390
 1041 m -27 X s 390 1077 m -27 X s 390 1106 m -27 X s 390 1130 m -27 X s 390 1151 m -27 X s 390 1170 m -27 X s 417 1186 m -54 X s 390 1296 m -27 X s 390 1360 m -27 X s 390 1406 m -27 X s 390 1441 m -27 X s 390 1470 m -27 X s 390 1494 m -27 X s 390
 1515 m -27 X s 390 1534 m -27 X s 417 1551 m -54 X s 390 1660 m -27 X s 390 1724 m -27 X s 390 1770 m -27 X s 390 1805 m -27 X s 390 1834 m -27 X s 390 1858 m -27 X s 390 1880 m -27 X s 390 1898 m -27 X s 417 1915 m -54 X s 390 2025 m -27 X s 2154
 348 m 1720 Y s 2127 348 m 27 X s 2127 377 m 27 X s 2127 401 m 27 X s 2127 423 m 27 X s 2127 441 m 27 X s 2101 458 m 53 X s 2127 568 m 27 X s 2127 632 m 27 X s 2127 677 m 27 X s 2127 713 m 27 X s 2127 741 m 27 X s 2127 766 m 27 X s 2127 787 m 27 X s
 2127 806 m 27 X s 2101 822 m 53 X s 2127 932 m 27 X s 2127 996 m 27 X s 2127 1041 m 27 X s 2127 1077 m 27 X s 2127 1106 m 27 X s 2127 1130 m 27 X s 2127 1151 m 27 X s 2127 1170 m 27 X s 2101 1186 m 53 X s 2127 1296 m 27 X s 2127 1360 m 27 X s 2127
 1406 m 27 X s 2127 1441 m 27 X s 2127 1470 m 27 X s 2127 1494 m 27 X s 2127 1515 m 27 X s 2127 1534 m 27 X s 2101 1551 m 53 X s 2127 1660 m 27 X s 2127 1724 m 27 X s 2127 1770 m 27 X s 2127 1805 m 27 X s 2127 1834 m 27 X s 2127 1858 m 27 X s 2127
 1880 m 27 X s 2127 1898 m 27 X s 2101 1915 m 53 X s 2127 2025 m 27 X s 0.808 0.063 0.175 c 6 lw 1213 520 m -74 Y s 3 lw 1259 446 m -46 -80 d -46 80 d f 6 lw 1259 446 m -46 -80 d -46 80 d 92 X cl s
 gr  gr showpage
end
%%EOF
