%!PS-Adobe-2.0 EPSF-2.0
%%BoundingBox:  0 0 567 544
%%Title: TestAnomalousPoints/logLStatPlot_our3Par_496.eps: 
%%Creator: ROOT Version 6.16/00
%%CreationDate: Wed Jan 15 15:47:48 2020
%%DocumentNeededResources: ProcSet (FontSetInit)
%%EndComments
%%BeginProlog
80 dict begin
/s {stroke} def /l {lineto} def /m {moveto} def /t {translate} def
/r {rotate} def /rl {roll}  def /R {repeat} def
/d {rlineto} def /rm {rmoveto} def /gr {grestore} def /f {eofill} def
/c {setrgbcolor} def /black {0 setgray} def /sd {setdash} def
/cl {closepath} def /sf {scalefont setfont} def /lw {setlinewidth} def
/box {m dup 0 exch d exch 0 d 0 exch neg d cl} def
/NC{systemdict begin initclip end}def/C{NC box clip newpath}def
/bl {box s} def /bf {gsave box gsave f grestore 1 lw [] 0 sd s grestore} def /Y { 0 exch d} def /X { 0 d} def 
/K {{pop pop 0 moveto} exch kshow} bind def
/ita {/ang 15 def gsave [1 0 ang dup sin exch cos div 1 0 0] concat} def 
/mp {newpath /y exch def /x exch def} def
/side {[w .77 mul w .23 mul] .385 w mul sd w 0 l currentpoint t -144 r} def
/mr {mp x y w2 0 360 arc} def /m24 {mr s} def /m20 {mr f} def
/mb {mp x y w2 add m w2 neg 0 d 0 w neg d w 0 d 0 w d cl} def
/mt {mp x y w2 add m w2 neg w neg d w 0 d cl} def
/w4 {w 4 div} def
/w6 {w 6 div} def
/w8 {w 8 div} def
/m21 {mb f} def /m25 {mb s} def /m22 {mt f} def /m26{mt s} def
/m23 {mp x y w2 sub m w2 w d w neg 0 d cl f} def
/m27 {mp x y w2 add m w3 neg w2 neg d w3 w2 neg d w3 w2 d cl s} def
/m28 {mp x w2 sub y w2 sub w3 add m w3 0 d  0 w3 neg d w3 0 d 0 w3 d w3 0 d  0 w3 d w3 neg 0 d 0 w3 d w3 neg 0 d 0 w3 neg d w3 neg 0 d cl s } def
/m29 {mp gsave x w2 sub y w2 add w3 sub m currentpoint t 4 {side} repeat cl fill gr} def
/m30 {mp gsave x w2 sub y w2 add w3 sub m currentpoint t 4 {side} repeat cl s gr} def
/m31 {mp x y w2 sub m 0 w d x w2 sub y m w 0 d x w2 sub y w2 add m w w neg d x w2 sub y w2 sub m w w d s} def
/m32 {mp x y w2 sub m w2 w d w neg 0 d cl s} def
/m33 {mp x y w2 add m w3 neg w2 neg d w3 w2 neg d w3 w2 d cl f} def
/m34 {mp x w2 sub y w2 sub w3 add m w3 0 d  0 w3 neg d w3 0 d 0 w3 d w3 0 d  0 w3 d w3 neg 0 d 0 w3 d w3 neg 0 d 0 w3 neg d w3 neg 0 d cl f } def
/m35 {mp x y w2 add m w2 neg w2 neg d w2 w2 neg d w2 w2 d w2 neg w2 d x y w2 sub m 0 w d x w2 sub y m w 0 d s} def
/m36 {mb x w2 sub y w2 add m w w neg d x w2 sub y w2 sub m w w d s} def
/m37 {mp x y m w4 neg w2 d w4 neg w2 neg d w2 0 d  w4 neg w2 neg d w2 0 d w4 neg w2 d w2 0 d w4 neg w2 d w4 neg w2 neg d cl s} def
/m38 {mp x w4 sub y w2 add m w4 neg w4 neg d 0 w2 neg d w4 w4 neg d w2 0 d w4 w4 d 0 w2 d w4 neg w4 d w2 neg 0 d x y w2 sub m 0 w d x w2 sub y m w 0 d cl s} def
/m39 {mp x y m w4 neg w2 d w4 neg w2 neg d w2 0 d  w4 neg w2 neg d w2 0 d w4 neg w2 d w2 0 d w4 neg w2 d w4 neg w2 neg d cl f} def
/m40 {mp x y m w4 w2 d w4 w4 neg d w2 neg w4 neg d w2 w4 neg d w4 neg w4 neg d w4 neg w2 d w4 neg w2 neg d w4 neg w4 d w2 w4 d w2 neg w4 d w4 w4 d w4 w2 neg d cl s} def
/m41 {mp x y m w4 w2 d w4 w4 neg d w2 neg w4 neg d w2 w4 neg d w4 neg w4 neg d w4 neg w2 d w4 neg w2 neg d w4 neg w4 d w2 w4 d w2 neg w4 d w4 w4 d w4 w2 neg d cl f} def
/m42 {mp x y w2 add m w8 neg w2 -3 4 div mul d w2 -3 4 div mul w8 neg d w2 3 4 div mul w8 neg d w8 w2 -3 4 div mul d w8 w2 3 4 div mul d w2 3 4 div mul w8 d w2 -3 4 div mul w8 d w8 neg w2 3 4 div mul d cl s} def
/m43 {mp x y w2 add m w8 neg w2 -3 4 div mul d w2 -3 4 div mul w8 neg d w2 3 4 div mul w8 neg d w8 w2 -3 4 div mul d w8 w2 3 4 div mul d w2 3 4 div mul w8 d w2 -3 4 div mul w8 d w8 neg w2 3 4 div mul d cl f} def
/m44 {mp x y m w6 neg w2 d w2 2 3 div mul 0 d w6 neg w2 neg d w2 w6 d 0 w2 -2 3 div mul d w2 neg w6 d w6 w2 neg d w2 -2 3 div mul 0 d w6 w2 d w2 neg w6 neg d 0 w2 2 3 div mul d w2 w6 neg d cl s} def
/m45 {mp x y m w6 neg w2 d w2 2 3 div mul 0 d w6 neg w2 neg d w2 w6 d 0 w2 -2 3 div mul d w2 neg w6 d w6 w2 neg d w2 -2 3 div mul 0 d w6 w2 d w2 neg w6 neg d 0 w2 2 3 div mul d w2 w6 neg d cl f} def
/m46 {mp x y w4 add m w4 neg w4 d w4 neg w4 neg d  w4 w4 neg d w4 neg w4 neg d w4 w4 neg d w4 w4 d w4 w4 neg d w4 w4 d w4 neg w4 d w4 w4 d w4 neg w4 d w4 neg w4 neg d cl s} def
/m47 {mp x y w4 add m w4 neg w4 d w4 neg w4 neg d w4 w4 neg d w4 neg w4 neg d  w4 w4 neg d w4 w4 d w4 w4 neg d w4 w4 d w4 neg w4 d w4 w4 d w4 neg w4 d w4 neg w4 neg d cl f} def
/m48 {mp x y w4 add m w4 neg w4 d w4 neg w4 neg d w4 w4 neg d  w4 neg w4 neg d w4 w4 neg d w4 w4 d w4 w4 neg d w4 w4 d w4 neg w4 d w4 w4 d w4 neg w4 d w4 neg w4 neg d  w4 w4 neg d w4 neg w4 neg d w4 neg w4 d w4 w4 d cl f} def
/m49 {mp x w2 sub w3 add y w2 sub w3 add m  0 w3 neg d w3 0 d 0 w3 d w3 0 d 0 w3 d w3 neg 0 d 0 w3 d w3 neg 0 d 0 w3 neg d w3 neg 0 d 0 w3 neg d w3 0 d 0 w3 d w3 0 d 0 w3 neg d w3 neg 0 d cl f } def
/m2 {mp x y w2 sub m 0 w d x w2 sub y m w 0 d s} def
/m5 {mp x w2 sub y w2 sub m w w d x w2 sub y w2 add m w w neg d s} def
%%IncludeResource: ProcSet (FontSetInit)
%%IncludeResource: font Times-Roman
%%IncludeResource: font Times-Italic
%%IncludeResource: font Times-Bold
%%IncludeResource: font Times-BoldItalic
%%IncludeResource: font Helvetica
%%IncludeResource: font Helvetica-Oblique
%%IncludeResource: font Helvetica-Bold
%%IncludeResource: font Helvetica-BoldOblique
%%IncludeResource: font Courier
%%IncludeResource: font Courier-Oblique
%%IncludeResource: font Courier-Bold
%%IncludeResource: font Courier-BoldOblique
%%IncludeResource: font Symbol
%%IncludeResource: font ZapfDingbats
/reEncode {exch findfont dup length dict begin {1 index /FID eq  {pop pop} {def} ifelse } forall /Encoding exch def currentdict end dup /FontName get exch definefont pop } def [/Times-Bold /Times-Italic /Times-BoldItalic /Helvetica /Helvetica-Oblique
 /Helvetica-Bold /Helvetica-BoldOblique /Courier /Courier-Oblique /Courier-Bold /Courier-BoldOblique /Times-Roman /AvantGarde-Book /AvantGarde-BookOblique /AvantGarde-Demi /AvantGarde-DemiOblique /Bookman-Demi /Bookman-DemiItalic /Bookman-Light
 /Bookman-LightItalic /Helvetica-Narrow /Helvetica-Narrow-Bold /Helvetica-Narrow-BoldOblique /Helvetica-Narrow-Oblique /NewCenturySchlbk-Roman /NewCenturySchlbk-Bold /NewCenturySchlbk-BoldItalic /NewCenturySchlbk-Italic /Palatino-Bold
 /Palatino-BoldItalic /Palatino-Italic /Palatino-Roman ] {ISOLatin1Encoding reEncode } forall
%%EndProlog
%%BeginSetup
%%EndSetup
newpath  gsave  .25 .25 scale  gsave  0 0 t 1 0 0 c[  ] 0 sd 3 lw 1 1 1 c 2268 2177 0 0 bf black 1 1 1 c 1791 1720 363 348 bf black 1791 1720 363 348 bl 1 1 1 c 1791 1720 363 348 bf black 1791 1720 363 348 bl 0.392 0.825 0.85 c 6 lw 1 1 1 c black
 0.392 0.825 0.85 c 363 348 m 71 X 115 Y 18 X 181 Y 18 X -181 Y 36 X 181 Y 36 X 214 Y 18 X -52 Y 18 X 80 Y 18 X 63 Y 18 X 146 Y 18 X -12 Y 17 X 38 Y 18 X -19 Y 18 X 69 Y 18 X 21 Y 18 X 40 Y 18 X 37 Y 18 X 32 Y 18 X 9 Y 18 X 7 Y 18 X 18 Y 18 X 21 Y 18
 X 4 Y 17 X 15 Y 18 X 13 Y 18 X 10 Y 18 X -2 Y 18 X 17 Y 18 X -1 Y 18 X 5 Y 18 X 5 Y 18 X -17 Y 18 X -9 Y 18 X 25 Y 18 X -12 Y 53 X 1 Y 18 X -19 Y 18 X -3 Y 18 X -9 Y 18 X 12 Y 18 X -12 Y 18 X -25 Y 18 X -1 Y 18 X -39 Y 17 X -6 Y 18 X -37 Y 18 X 21 Y
 18 X -32 Y 18 X -23 Y 18 X 41 Y 18 X -64 Y 18 X -24 Y 18 X -8 Y 18 X -16 Y 18 X -39 Y 18 X 37 Y 17 X -37 Y 18 X -44 Y 18 X -34 Y 18 X -14 Y 18 X 19 Y 18 X -36 Y 18 X -69 Y 18 X -19 Y 18 X 10 Y 18 X -20 Y 18 X 29 Y 18 X 8 Y 17 X -199 Y 18 X 48 Y 18 X
 67 Y 18 X -115 Y 18 X -114 Y 36 X 162 Y 18 X -343 Y 18 X 181 Y 18 X 84 Y 18 X -265 Y 71 X 114 Y 18 X -229 Y 54 X 229 Y 18 X -114 Y 36 X -115 Y 71 X s black 3 lw 363 348 m 1791 X s 572 400 m -52 Y s 621 374 m -26 Y s 669 374 m -26 Y s 718 374 m -26 Y
 s 766 374 m -26 Y s 814 400 m -52 Y s 863 374 m -26 Y s 911 374 m -26 Y s 960 374 m -26 Y s 1008 374 m -26 Y s 1056 400 m -52 Y s 1105 374 m -26 Y s 1153 374 m -26 Y s 1202 374 m -26 Y s 1250 374 m -26 Y s 1298 400 m -52 Y s 1347 374 m -26 Y s 1395
 374 m -26 Y s 1444 374 m -26 Y s 1492 374 m -26 Y s 1540 400 m -52 Y s 1589 374 m -26 Y s 1637 374 m -26 Y s 1686 374 m -26 Y s 1734 374 m -26 Y s 1782 400 m -52 Y s 1831 374 m -26 Y s 1879 374 m -26 Y s 1927 374 m -26 Y s 1976 374 m -26 Y s 2024
 400 m -52 Y s 572 400 m -52 Y s 524 374 m -26 Y s 476 374 m -26 Y s 427 374 m -26 Y s 379 374 m -26 Y s 2024 400 m -52 Y s 2073 374 m -26 Y s 2121 374 m -26 Y s
 gsave  2268 2177 0 0 C 485.398 254.075 t 0 r /Helvetica findfont 102.389 sf 0 0 m (105) show NC gr 
 gsave  2268 2177 0 0 C 728.096 254.075 t 0 r /Helvetica findfont 102.389 sf 0 0 m (110) show NC gr 
 gsave  2268 2177 0 0 C 970.795 254.075 t 0 r /Helvetica findfont 102.389 sf 0 0 m (115) show NC gr 
 gsave  2268 2177 0 0 C 1213.49 254.075 t 0 r /Helvetica findfont 102.389 sf 0 0 m (120) show NC gr 
 gsave  2268 2177 0 0 C 1456.19 254.075 t 0 r /Helvetica findfont 102.389 sf 0 0 m (125) show NC gr 
 gsave  2268 2177 0 0 C 1695.1 254.075 t 0 r /Helvetica findfont 102.389 sf 0 0 m (130) show NC gr 
 gsave  2268 2177 0 0 C 1937.8 254.075 t 0 r /Helvetica findfont 102.389 sf 0 0 m (135) show NC gr 
 gsave  2268 2177 0 0 C 1592.71 75.8434 t 0 r /Helvetica findfont 102.389 sf 0 0 m (logL statistic) show NC gr  363 2068 m 1791 X s 572 2016 m 52 Y s 621 2042 m 26 Y s 669 2042 m 26 Y s 718 2042 m 26 Y s 766 2042 m 26 Y s 814 2016 m 52 Y s 863 2042 m
 26 Y s 911 2042 m 26 Y s 960 2042 m 26 Y s 1008 2042 m 26 Y s 1056 2016 m 52 Y s 1105 2042 m 26 Y s 1153 2042 m 26 Y s 1202 2042 m 26 Y s 1250 2042 m 26 Y s 1298 2016 m 52 Y s 1347 2042 m 26 Y s 1395 2042 m 26 Y s 1444 2042 m 26 Y s 1492 2042 m 26 Y
 s 1540 2016 m 52 Y s 1589 2042 m 26 Y s 1637 2042 m 26 Y s 1686 2042 m 26 Y s 1734 2042 m 26 Y s 1782 2016 m 52 Y s 1831 2042 m 26 Y s 1879 2042 m 26 Y s 1927 2042 m 26 Y s 1976 2042 m 26 Y s 2024 2016 m 52 Y s 572 2016 m 52 Y s 524 2042 m 26 Y s
 476 2042 m 26 Y s 427 2042 m 26 Y s 379 2042 m 26 Y s 2024 2016 m 52 Y s 2073 2042 m 26 Y s 2121 2042 m 26 Y s 363 348 m 1720 Y s 390 348 m -27 X s 390 378 m -27 X s 390 404 m -27 X s 390 426 m -27 X s 390 445 m -27 X s 417 463 m -54 X s
 gsave  2268 2177 0 0 C 303.373 424.723 t 0 r /Helvetica findfont 102.389 sf 0 0 m (1) show NC gr  390 577 m -27 X s 390 644 m -27 X s 390 691 m -27 X s 390 728 m -27 X s 390 758 m -27 X s 390 784 m -27 X s 390 806 m -27 X s 390 825 m -27 X s 417 843
 m -54 X s
 gsave  2268 2177 0 0 C 231.322 807.732 t 0 r /Helvetica findfont 102.389 sf 0 0 m (10) show NC gr  390 957 m -27 X s 390 1024 m -27 X s 390 1071 m -27 X s 390 1108 m -27 X s 390 1138 m -27 X s 390 1164 m -27 X s 390 1186 m -27 X s 390 1205 m -27 X s
 417 1223 m -54 X s
 gsave  2268 2177 0 0 C 303.373 1221.08 t 0 r /Helvetica findfont 68.259 sf 0 0 m (2) show NC gr 
 gsave  2268 2177 0 0 C 193.401 1175.57 t 0 r /Helvetica findfont 102.389 sf 0 0 m (10) show NC gr  390 1337 m -27 X s 390 1404 m -27 X s 390 1451 m -27 X s 390 1488 m -27 X s 390 1518 m -27 X s 390 1544 m -27 X s 390 1566 m -27 X s 390 1585 m -27 X
 s 417 1603 m -54 X s
 gsave  2268 2177 0 0 C 303.373 1604.09 t 0 r /Helvetica findfont 68.259 sf 0 0 m (3) show NC gr 
 gsave  2268 2177 0 0 C 193.401 1554.79 t 0 r /Helvetica findfont 102.389 sf 0 0 m (10) show NC gr  390 1717 m -27 X s 390 1784 m -27 X s 390 1832 m -27 X s 390 1868 m -27 X s 390 1898 m -27 X s 390 1924 m -27 X s 390 1946 m -27 X s 390 1965 m -27 X
 s 417 1983 m -54 X s
 gsave  2268 2177 0 0 C 303.373 1979.51 t 0 r /Helvetica findfont 68.259 sf 0 0 m (4) show NC gr 
 gsave  2268 2177 0 0 C 193.401 1934.01 t 0 r /Helvetica findfont 102.389 sf 0 0 m (10) show NC gr 
 gsave  2268 2177 0 0 C 132.726 1076.98 t 90 r /Helvetica findfont 102.389 sf 0 0 m (Pseudo\255exeperiments) show NC gr  2154 348 m 1720 Y s 2127 348 m 27 X s 2127 378 m 27 X s 2127 404 m 27 X s 2127 426 m 27 X s 2127 445 m 27 X s 2101 463 m 53 X s
 2127 577 m 27 X s 2127 644 m 27 X s 2127 691 m 27 X s 2127 728 m 27 X s 2127 758 m 27 X s 2127 784 m 27 X s 2127 806 m 27 X s 2127 825 m 27 X s 2101 843 m 53 X s 2127 957 m 27 X s 2127 1024 m 27 X s 2127 1071 m 27 X s 2127 1108 m 27 X s 2127 1138 m
 27 X s 2127 1164 m 27 X s 2127 1186 m 27 X s 2127 1205 m 27 X s 2101 1223 m 53 X s 2127 1337 m 27 X s 2127 1404 m 27 X s 2127 1451 m 27 X s 2127 1488 m 27 X s 2127 1518 m 27 X s 2127 1544 m 27 X s 2127 1566 m 27 X s 2127 1585 m 27 X s 2101 1603 m 53
 X s 2127 1717 m 27 X s 2127 1784 m 27 X s 2127 1832 m 27 X s 2127 1868 m 27 X s 2127 1898 m 27 X s 2127 1924 m 27 X s 2127 1946 m 27 X s 2127 1965 m 27 X s 2101 1983 m 53 X s 0.392 0.825 0.85 c black 0.392 0.825 0.85 c 17 572 1663 348 bf 17 601 1671
 348 bf 17 609 1689 348 bf 17 410 1707 348 bf 18 458 1724 348 bf 18 525 1742 348 bf 18 410 1760 348 bf 18 296 1778 348 bf 18 296 1796 348 bf 18 458 1814 348 bf 18 115 1832 348 bf 18 296 1850 348 bf 18 380 1868 348 bf 17 115 1886 348 bf 17 115 1904
 348 bf 17 115 1922 348 bf 18 115 1939 348 bf 18 229 1957 348 bf 18 229 2029 348 bf 18 115 2047 348 bf 18 115 2065 348 bf black
 gsave  2268 2177 0 0 C 781.187 1619.26 t 0 r /Helvetica findfont 79.6355 sf 0 0 m (Pseudo\255experiments) show NC gr  1 1 1 c 3 lw 522 1605 m 214 X 77 Y -214 X f 0.392 0.825 0.85 c 6 lw 522 1643 m 214 X s black
 gsave  2268 2177 0 0 C 781.187 1513.08 t 0 r /Helvetica findfont 79.6355 sf 0 0 m (Value in Data) show NC gr  0.808 0.063 0.175 c 522 1535 m 214 X s black
 gsave  2268 2177 0 0 C 1209.7 1824.03 t 0 r /Helvetica findfont 53.0904 sf 0 0 m (\2551) show NC gr 
 gsave  2268 2177 0 0 C 576.41 1786.11 t 0 r /Helvetica findfont 79.6355 sf 0 0 m (=13 TeV, 139.0 fb) show NC gr 
 gsave  2268 2177 0 0 C 538.488 1786.11 t 0 r /Helvetica findfont 79.6355 sf 0 0 m (s) show NC gr  512 1832 m 8 -50 d s 3 lw 520 1782 m 11 72 d s 531 1854 m 45 X s
 gsave  2268 2177 0 0 C 546.072 1350.01 t 0 r /Helvetica findfont 79.6355 sf 0 0 m (\255value = 0.01) show NC gr 
 gsave  2268 2177 0 0 C 496.774 1350.01 t 0 r /Helvetica-Oblique findfont 79.6355 sf 0 0 m (p) show NC gr  363 348 m 1791 X s 572 400 m -52 Y s 621 374 m -26 Y s 669 374 m -26 Y s 718 374 m -26 Y s 766 374 m -26 Y s 814 400 m -52 Y s 863 374 m -26 Y
 s 911 374 m -26 Y s 960 374 m -26 Y s 1008 374 m -26 Y s 1056 400 m -52 Y s 1105 374 m -26 Y s 1153 374 m -26 Y s 1202 374 m -26 Y s 1250 374 m -26 Y s 1298 400 m -52 Y s 1347 374 m -26 Y s 1395 374 m -26 Y s 1444 374 m -26 Y s 1492 374 m -26 Y s
 1540 400 m -52 Y s 1589 374 m -26 Y s 1637 374 m -26 Y s 1686 374 m -26 Y s 1734 374 m -26 Y s 1782 400 m -52 Y s 1831 374 m -26 Y s 1879 374 m -26 Y s 1927 374 m -26 Y s 1976 374 m -26 Y s 2024 400 m -52 Y s 572 400 m -52 Y s 524 374 m -26 Y s 476
 374 m -26 Y s 427 374 m -26 Y s 379 374 m -26 Y s 2024 400 m -52 Y s 2073 374 m -26 Y s 2121 374 m -26 Y s 363 2068 m 1791 X s 572 2016 m 52 Y s 621 2042 m 26 Y s 669 2042 m 26 Y s 718 2042 m 26 Y s 766 2042 m 26 Y s 814 2016 m 52 Y s 863 2042 m 26
 Y s 911 2042 m 26 Y s 960 2042 m 26 Y s 1008 2042 m 26 Y s 1056 2016 m 52 Y s 1105 2042 m 26 Y s 1153 2042 m 26 Y s 1202 2042 m 26 Y s 1250 2042 m 26 Y s 1298 2016 m 52 Y s 1347 2042 m 26 Y s 1395 2042 m 26 Y s 1444 2042 m 26 Y s 1492 2042 m 26 Y s
 1540 2016 m 52 Y s 1589 2042 m 26 Y s 1637 2042 m 26 Y s 1686 2042 m 26 Y s 1734 2042 m 26 Y s 1782 2016 m 52 Y s 1831 2042 m 26 Y s 1879 2042 m 26 Y s 1927 2042 m 26 Y s 1976 2042 m 26 Y s 2024 2016 m 52 Y s 572 2016 m 52 Y s 524 2042 m 26 Y s 476
 2042 m 26 Y s 427 2042 m 26 Y s 379 2042 m 26 Y s 2024 2016 m 52 Y s 2073 2042 m 26 Y s 2121 2042 m 26 Y s 363 348 m 1720 Y s 390 348 m -27 X s 390 378 m -27 X s 390 404 m -27 X s 390 426 m -27 X s 390 445 m -27 X s 417 463 m -54 X s 390 577 m -27 X
 s 390 644 m -27 X s 390 691 m -27 X s 390 728 m -27 X s 390 758 m -27 X s 390 784 m -27 X s 390 806 m -27 X s 390 825 m -27 X s 417 843 m -54 X s 390 957 m -27 X s 390 1024 m -27 X s 390 1071 m -27 X s 390 1108 m -27 X s 390 1138 m -27 X s 390 1164
 m -27 X s 390 1186 m -27 X s 390 1205 m -27 X s 417 1223 m -54 X s 390 1337 m -27 X s 390 1404 m -27 X s 390 1451 m -27 X s 390 1488 m -27 X s 390 1518 m -27 X s 390 1544 m -27 X s 390 1566 m -27 X s 390 1585 m -27 X s 417 1603 m -54 X s 390 1717 m
 -27 X s 390 1784 m -27 X s 390 1832 m -27 X s 390 1868 m -27 X s 390 1898 m -27 X s 390 1924 m -27 X s 390 1946 m -27 X s 390 1965 m -27 X s 417 1983 m -54 X s 2154 348 m 1720 Y s 2127 348 m 27 X s 2127 378 m 27 X s 2127 404 m 27 X s 2127 426 m 27 X
 s 2127 445 m 27 X s 2101 463 m 53 X s 2127 577 m 27 X s 2127 644 m 27 X s 2127 691 m 27 X s 2127 728 m 27 X s 2127 758 m 27 X s 2127 784 m 27 X s 2127 806 m 27 X s 2127 825 m 27 X s 2101 843 m 53 X s 2127 957 m 27 X s 2127 1024 m 27 X s 2127 1071 m
 27 X s 2127 1108 m 27 X s 2127 1138 m 27 X s 2127 1164 m 27 X s 2127 1186 m 27 X s 2127 1205 m 27 X s 2101 1223 m 53 X s 2127 1337 m 27 X s 2127 1404 m 27 X s 2127 1451 m 27 X s 2127 1488 m 27 X s 2127 1518 m 27 X s 2127 1544 m 27 X s 2127 1566 m 27
 X s 2127 1585 m 27 X s 2101 1603 m 53 X s 2127 1717 m 27 X s 2127 1784 m 27 X s 2127 1832 m 27 X s 2127 1868 m 27 X s 2127 1898 m 27 X s 2127 1924 m 27 X s 2127 1946 m 27 X s 2127 1965 m 27 X s 2101 1983 m 53 X s 0.808 0.063 0.175 c 6 lw 1672 520 m
 -73 Y s 3 lw 1717 447 m -45 -80 d -46 80 d f 6 lw 1717 447 m -45 -80 d -46 80 d 91 X cl s
 gr  gr showpage
end
%%EOF
